{
    "uid": "BD_PY_DTYPES_MAP",
    "TRN_EVL_ID": "IDF",
    "NETWORK": "Commercial",
    "KSATs": [
        ["K0014", "C"],
        ["K0017", "C"],
        ["A0028", "3"]
    ],
    "subject": "data_types",
    "lesson": "mapping",
    "objectives": {},
    "workroles": ["basic-dev"],
    "etc": 1,
    "creation_date": "3/6/2020",
    "revision_date": "3/6/2020",
    "revision_number": "1",
    "labs": {
        "perf_lab": {
            "lab_path": "",
            "headerpath": "",
            "support_files": [],
            "solution": "",
            "dependencies": {
                "libraries": [],
                "req_software": []
            },
            "tests": []
        },
        "demo_lab": {
            "lab_path": "",
            "headerpath": "",
            "support_files": [],
            "solution": "",
            "dependencies": {
                "libraries": [],
                "req_software": []
            }  
        }
    }
}
